{
  "name": "soccer-stats-feature-login",
  "$schema": "../../../node_modules/nx/schemas/project-schema.json",
  "projectType": "library",
  "sourceRoot": "libs/soccer-stats/feature-login/src",
  "prefix": "bsc",
  "targets": {
    "lint": {
      "executor": "@nx/eslint:lint",
      "options": {
        "lintFilePatterns": [
          "libs/soccer-stats/feature-login/src/**/*.ts",
          "libs/soccer-stats/feature-login/src/**/*.html"
        ]
      }
    },
    "test": {
      "executor": "@nx/jest:jest",
      "outputs": ["{workspaceRoot}/coverage/libs/soccer-stats/feature-login"],
      "options": {
        "jestConfig": "libs/soccer-stats/feature-login/jest.config.ts"
      }
    }
  }
}
