{
  "name": "soccer-stats-feature-game-stats",
  "$schema": "../../../node_modules/nx/schemas/project-schema.json",
  "projectType": "library",
  "sourceRoot": "libs/soccer-stats/feature-game-stats/src",
  "prefix": "bsc",
  "targets": {
    "lint": {
      "executor": "@nx/eslint:lint",
      "options": {
        "lintFilePatterns": [
          "libs/soccer-stats/feature-game-stats/src/**/*.ts",
          "libs/soccer-stats/feature-game-stats/src/**/*.html"
        ]
      }
    },
    "test": {
      "executor": "@nx/jest:jest",
      "outputs": [
        "{workspaceRoot}/coverage/libs/soccer-stats/feature-game-stats"
      ],
      "options": {
        "jestConfig": "libs/soccer-stats/feature-game-stats/jest.config.ts"
      }
    }
  }
}
